tb.vcd
$date
	Wed Mar 19 15:27:27 2025
$end
$version
	Icarus Verilog
$end
$timescale
	1s
$end
$scope module tb $end
$var wire 1 ! we $end
$var wire 32 " data_out [31:0] $end
$var wire 32 # data_in [31:0] $end
$var wire 32 $ address [31:0] $end
$var reg 1 % clk $end
$var reg 1 & resetn $end
$scope module dut $end
$var wire 1 % clk $end
$var wire 1 & resetn $end
$var wire 32 ' data_in [31:0] $end
$var reg 32 ( address [31:0] $end
$var reg 32 ) data_out [31:0] $end
$var reg 1 ! we $end
$upscope $end
$scope module m $end
$var wire 32 * address [31:0] $end
$var wire 32 + data_in [31:0] $end
$var wire 1 ! we $end
$var reg 32 , data_out [31:0] $end
$var integer 32 - i [31:0] $end
$upscope $end
$upscope $end
$enddefinitions $end
$comment Show the parameter values. $end
$dumpall
$end
#0
$dumpvars
b10000000000 -
bx ,
bx +
bx *
bx )
bx (
bx '
0&
x%
bx $
bx #
bx "
x!
$end
#1
0%
#2
b111110100000000000000010010011 #
b111110100000000000000010010011 '
b111110100000000000000010010011 ,
b0 $
b0 (
b0 *
b0 "
b0 )
b0 +
0!
1%
#3
0%
#4
1%
#5
0%
#6
1%
#7
0%
#8
1%
#9
0%
#10
1%
#11
0%
1&
#12
b1111101000000001000000100010011 #
b1111101000000001000000100010011 '
b1111101000000001000000100010011 ,
b100 $
b100 (
b100 *
1%
#13
0%
#14
b11000001100000010000000110010011 #
b11000001100000010000000110010011 '
b11000001100000010000000110010011 ,
b1000 $
b1000 (
b1000 *
1%
#15
0%
#16
b10000011000000011000001000010011 #
b10000011000000011000001000010011 '
b10000011000000011000001000010011 ,
b1100 $
b1100 (
b1100 *
1%
#17
0%
#18
b111110100000100000001010010011 #
b111110100000100000001010010011 '
b111110100000100000001010010011 ,
b10000 $
b10000 (
b10000 *
1%
#19
0%
#20
b10000001100010111 #
b10000001100010111 '
b10000001100010111 ,
b10100 $
b10100 (
b10100 *
1%
#21
0%
#22
b11111110110000110000001100010011 #
b11111110110000110000001100010011 '
b11111110110000110000001100010011 ,
b11000 $
b11000 (
b11000 *
1%
#23
0%
#24
b10000110000001100010011 #
b10000110000001100010011 '
b10000110000001100010011 ,
b11100 $
b11100 (
b11100 *
1%
#25
0%
#26
b0 #
b0 '
b0 ,
b100000 $
b100000 (
b100000 *
1%
#27
0%
#28
b100100 $
b100100 (
b100100 *
1%
#29
0%
#30
b101000 $
b101000 (
b101000 *
1%
#31
0%
#32
b101100 $
b101100 (
b101100 *
1%
#33
0%
#34
b110000 $
b110000 (
b110000 *
1%
#35
0%
#36
b110100 $
b110100 (
b110100 *
1%
#37
0%
#38
b111000 $
b111000 (
b111000 *
1%
#39
0%
#40
b111100 $
b111100 (
b111100 *
1%
#41
0%
#42
b1000000 $
b1000000 (
b1000000 *
1%
#43
0%
#44
b1000100 $
b1000100 (
b1000100 *
1%
#45
0%
#46
b1001000 $
b1001000 (
b1001000 *
1%
#47
0%
#48
b1001100 $
b1001100 (
b1001100 *
1%
#49
0%
#50
b1010000 $
b1010000 (
b1010000 *
1%
#51
0%
#52
b1010100 $
b1010100 (
b1010100 *
1%
#53
0%
#54
b1011000 $
b1011000 (
b1011000 *
1%
#55
0%
#56
b1011100 $
b1011100 (
b1011100 *
1%
#57
0%
#58
b1100000 $
b1100000 (
b1100000 *
1%
#59
0%
#60
b1100100 $
b1100100 (
b1100100 *
1%
#61
0%
#62
b1101000 $
b1101000 (
b1101000 *
1%
#63
0%
#64
b1101100 $
b1101100 (
b1101100 *
1%
#65
0%
#66
b1110000 $
b1110000 (
b1110000 *
1%
#67
0%
#68
b1110100 $
b1110100 (
b1110100 *
1%
#69
0%
#70
b1111000 $
b1111000 (
b1111000 *
1%
#71
0%
#72
b1111100 $
b1111100 (
b1111100 *
1%
#73
0%
#74
b10000000 $
b10000000 (
b10000000 *
1%
#75
0%
#76
b10000100 $
b10000100 (
b10000100 *
1%
#77
0%
#78
b10001000 $
b10001000 (
b10001000 *
1%
#79
0%
#80
b10001100 $
b10001100 (
b10001100 *
1%
#81
0%
#82
b10010000 $
b10010000 (
b10010000 *
1%
#83
0%
#84
b10010100 $
b10010100 (
b10010100 *
1%
#85
0%
#86
b10011000 $
b10011000 (
b10011000 *
1%
#87
0%
#88
b10011100 $
b10011100 (
b10011100 *
1%
#89
0%
#90
b10100000 $
b10100000 (
b10100000 *
1%
#91
0%
#92
b10100100 $
b10100100 (
b10100100 *
1%
#93
0%
#94
b10101000 $
b10101000 (
b10101000 *
1%
#95
0%
#96
b10101100 $
b10101100 (
b10101100 *
1%
#97
0%
#98
b10110000 $
b10110000 (
b10110000 *
1%
#99
0%
#100
b10110100 $
b10110100 (
b10110100 *
1%
#101
0%
#102
b10111000 $
b10111000 (
b10111000 *
1%
#103
0%
#104
b10111100 $
b10111100 (
b10111100 *
1%
#105
0%
#106
b11000000 $
b11000000 (
b11000000 *
1%
#107
0%
#108
b11000100 $
b11000100 (
b11000100 *
1%
#109
0%
#110
b11001000 $
b11001000 (
b11001000 *
1%
#111
0%
#112
b11001100 $
b11001100 (
b11001100 *
1%
#113
0%
#114
b11010000 $
b11010000 (
b11010000 *
1%
#115
0%
#116
b11010100 $
b11010100 (
b11010100 *
1%
#117
0%
#118
b11011000 $
b11011000 (
b11011000 *
1%
#119
0%
#120
b11011100 $
b11011100 (
b11011100 *
1%
#121
0%
#122
b11100000 $
b11100000 (
b11100000 *
1%
#123
0%
#124
b11100100 $
b11100100 (
b11100100 *
1%
#125
0%
#126
b11101000 $
b11101000 (
b11101000 *
1%
#127
0%
#128
b11101100 $
b11101100 (
b11101100 *
1%
#129
0%
#130
b11110000 $
b11110000 (
b11110000 *
1%
#131
0%
#132
b11110100 $
b11110100 (
b11110100 *
1%
#133
0%
#134
b11111000 $
b11111000 (
b11111000 *
1%
#135
0%
#136
b11111100 $
b11111100 (
b11111100 *
1%
#137
0%
#138
b100000000 $
b100000000 (
b100000000 *
1%
#139
0%
#140
b100000100 $
b100000100 (
b100000100 *
1%
#141
0%
#142
b100001000 $
b100001000 (
b100001000 *
1%
#143
0%
#144
b100001100 $
b100001100 (
b100001100 *
1%
#145
0%
#146
b100010000 $
b100010000 (
b100010000 *
1%
#147
0%
#148
b100010100 $
b100010100 (
b100010100 *
1%
#149
0%
#150
b100011000 $
b100011000 (
b100011000 *
1%
#151
0%
#152
b100011100 $
b100011100 (
b100011100 *
1%
#153
0%
#154
b100100000 $
b100100000 (
b100100000 *
1%
#155
0%
#156
b100100100 $
b100100100 (
b100100100 *
1%
#157
0%
#158
b100101000 $
b100101000 (
b100101000 *
1%
#159
0%
#160
b100101100 $
b100101100 (
b100101100 *
1%
#161
0%
#162
b100110000 $
b100110000 (
b100110000 *
1%
#163
0%
#164
b100110100 $
b100110100 (
b100110100 *
1%
#165
0%
#166
b100111000 $
b100111000 (
b100111000 *
1%
#167
0%
#168
b100111100 $
b100111100 (
b100111100 *
1%
#169
0%
#170
b101000000 $
b101000000 (
b101000000 *
1%
#171
0%
#172
b101000100 $
b101000100 (
b101000100 *
1%
#173
0%
#174
b101001000 $
b101001000 (
b101001000 *
1%
#175
0%
#176
b101001100 $
b101001100 (
b101001100 *
1%
#177
0%
#178
b101010000 $
b101010000 (
b101010000 *
1%
#179
0%
#180
b101010100 $
b101010100 (
b101010100 *
1%
#181
0%
#182
b101011000 $
b101011000 (
b101011000 *
1%
#183
0%
#184
b101011100 $
b101011100 (
b101011100 *
1%
#185
0%
#186
b101100000 $
b101100000 (
b101100000 *
1%
#187
0%
#188
b101100100 $
b101100100 (
b101100100 *
1%
#189
0%
#190
b101101000 $
b101101000 (
b101101000 *
1%
#191
0%
#192
b101101100 $
b101101100 (
b101101100 *
1%
#193
0%
#194
b101110000 $
b101110000 (
b101110000 *
1%
#195
0%
#196
b101110100 $
b101110100 (
b101110100 *
1%
#197
0%
#198
b101111000 $
b101111000 (
b101111000 *
1%
#199
0%
#200
b101111100 $
b101111100 (
b101111100 *
1%
#201
0%
#202
b110000000 $
b110000000 (
b110000000 *
1%
#203
0%
#204
b110000100 $
b110000100 (
b110000100 *
1%
#205
0%
#206
b110001000 $
b110001000 (
b110001000 *
1%
#207
0%
#208
b110001100 $
b110001100 (
b110001100 *
1%
#209
0%
#210
b110010000 $
b110010000 (
b110010000 *
1%
#211
0%
#212
b110010100 $
b110010100 (
b110010100 *
1%
#213
0%
#214
b110011000 $
b110011000 (
b110011000 *
1%
#215
0%
#216
b110011100 $
b110011100 (
b110011100 *
1%
#217
0%
#218
b110100000 $
b110100000 (
b110100000 *
1%
#219
0%
#220
b110100100 $
b110100100 (
b110100100 *
1%
#221
0%
#222
b110101000 $
b110101000 (
b110101000 *
1%
#223
0%
#224
b110101100 $
b110101100 (
b110101100 *
1%
#225
0%
#226
b110110000 $
b110110000 (
b110110000 *
1%
#227
0%
#228
b110110100 $
b110110100 (
b110110100 *
1%
#229
0%
#230
b110111000 $
b110111000 (
b110111000 *
1%
#231
0%
#232
b110111100 $
b110111100 (
b110111100 *
1%
#233
0%
#234
b111000000 $
b111000000 (
b111000000 *
1%
#235
0%
#236
b111000100 $
b111000100 (
b111000100 *
1%
#237
0%
#238
b111001000 $
b111001000 (
b111001000 *
1%
#239
0%
#240
b111001100 $
b111001100 (
b111001100 *
1%
#241
0%
#242
b111010000 $
b111010000 (
b111010000 *
1%
#243
0%
#244
b111010100 $
b111010100 (
b111010100 *
1%
#245
0%
#246
b111011000 $
b111011000 (
b111011000 *
1%
#247
0%
#248
b111011100 $
b111011100 (
b111011100 *
1%
#249
0%
#250
b111100000 $
b111100000 (
b111100000 *
1%
#251
0%
#252
b111100100 $
b111100100 (
b111100100 *
1%
#253
0%
#254
b111101000 $
b111101000 (
b111101000 *
1%
#255
0%
#256
b111101100 $
b111101100 (
b111101100 *
1%
#257
0%
#258
b111110000 $
b111110000 (
b111110000 *
1%
#259
0%
#260
b111110100 $
b111110100 (
b111110100 *
1%
#261
0%
#262
b111111000 $
b111111000 (
b111111000 *
1%
#263
0%
#264
b111111100 $
b111111100 (
b111111100 *
1%
#265
0%
#266
b1000000000 $
b1000000000 (
b1000000000 *
1%
#267
0%
#268
b1000000100 $
b1000000100 (
b1000000100 *
1%
#269
0%
#270
b1000001000 $
b1000001000 (
b1000001000 *
1%
#271
0%
#272
b1000001100 $
b1000001100 (
b1000001100 *
1%
#273
0%
#274
b1000010000 $
b1000010000 (
b1000010000 *
1%
#275
0%
#276
b1000010100 $
b1000010100 (
b1000010100 *
1%
#277
0%
#278
b1000011000 $
b1000011000 (
b1000011000 *
1%
#279
0%
#280
b1000011100 $
b1000011100 (
b1000011100 *
1%
#281
0%
#282
b1000100000 $
b1000100000 (
b1000100000 *
1%
#283
0%
#284
b1000100100 $
b1000100100 (
b1000100100 *
1%
#285
0%
#286
b1000101000 $
b1000101000 (
b1000101000 *
1%
#287
0%
#288
b1000101100 $
b1000101100 (
b1000101100 *
1%
#289
0%
#290
b1000110000 $
b1000110000 (
b1000110000 *
1%
#291
0%
#292
b1000110100 $
b1000110100 (
b1000110100 *
1%
#293
0%
#294
b1000111000 $
b1000111000 (
b1000111000 *
1%
#295
0%
#296
b1000111100 $
b1000111100 (
b1000111100 *
1%
#297
0%
#298
b1001000000 $
b1001000000 (
b1001000000 *
1%
#299
0%
#300
b1001000100 $
b1001000100 (
b1001000100 *
1%
#301
0%
#302
b1001001000 $
b1001001000 (
b1001001000 *
1%
#303
0%
#304
b1001001100 $
b1001001100 (
b1001001100 *
1%
#305
0%
#306
b1001010000 $
b1001010000 (
b1001010000 *
1%
#307
0%
#308
b1001010100 $
b1001010100 (
b1001010100 *
1%
#309
0%
#310
b1001011000 $
b1001011000 (
b1001011000 *
1%
#311
0%
#312
b1001011100 $
b1001011100 (
b1001011100 *
1%
#313
0%
#314
b1001100000 $
b1001100000 (
b1001100000 *
1%
#315
0%
#316
b1001100100 $
b1001100100 (
b1001100100 *
1%
#317
0%
#318
b1001101000 $
b1001101000 (
b1001101000 *
1%
#319
0%
#320
b1001101100 $
b1001101100 (
b1001101100 *
1%
#321
0%
#322
b1001110000 $
b1001110000 (
b1001110000 *
1%
#323
0%
#324
b1001110100 $
b1001110100 (
b1001110100 *
1%
#325
0%
#326
b1001111000 $
b1001111000 (
b1001111000 *
1%
#327
0%
#328
b1001111100 $
b1001111100 (
b1001111100 *
1%
#329
0%
#330
b1010000000 $
b1010000000 (
b1010000000 *
1%
#331
0%
#332
b1010000100 $
b1010000100 (
b1010000100 *
1%
#333
0%
#334
b1010001000 $
b1010001000 (
b1010001000 *
1%
#335
0%
#336
b1010001100 $
b1010001100 (
b1010001100 *
1%
#337
0%
#338
b1010010000 $
b1010010000 (
b1010010000 *
1%
#339
0%
#340
b1010010100 $
b1010010100 (
b1010010100 *
1%
#341
0%
#342
b1010011000 $
b1010011000 (
b1010011000 *
1%
#343
0%
#344
b1010011100 $
b1010011100 (
b1010011100 *
1%
#345
0%
#346
b1010100000 $
b1010100000 (
b1010100000 *
1%
#347
0%
#348
b1010100100 $
b1010100100 (
b1010100100 *
1%
#349
0%
#350
b1010101000 $
b1010101000 (
b1010101000 *
1%
#351
0%
#352
b1010101100 $
b1010101100 (
b1010101100 *
1%
#353
0%
#354
b1010110000 $
b1010110000 (
b1010110000 *
1%
#355
0%
#356
b1010110100 $
b1010110100 (
b1010110100 *
1%
#357
0%
#358
b1010111000 $
b1010111000 (
b1010111000 *
1%
#359
0%
#360
b1010111100 $
b1010111100 (
b1010111100 *
1%
#361
0%
#362
b1011000000 $
b1011000000 (
b1011000000 *
1%
#363
0%
#364
b1011000100 $
b1011000100 (
b1011000100 *
1%
#365
0%
#366
b1011001000 $
b1011001000 (
b1011001000 *
1%
#367
0%
#368
b1011001100 $
b1011001100 (
b1011001100 *
1%
#369
0%
#370
b1011010000 $
b1011010000 (
b1011010000 *
1%
#371
0%
#372
b1011010100 $
b1011010100 (
b1011010100 *
1%
#373
0%
#374
b1011011000 $
b1011011000 (
b1011011000 *
1%
#375
0%
#376
b1011011100 $
b1011011100 (
b1011011100 *
1%
#377
0%
#378
b1011100000 $
b1011100000 (
b1011100000 *
1%
#379
0%
#380
b1011100100 $
b1011100100 (
b1011100100 *
1%
#381
0%
#382
b1011101000 $
b1011101000 (
b1011101000 *
1%
#383
0%
#384
b1011101100 $
b1011101100 (
b1011101100 *
1%
#385
0%
#386
b1011110000 $
b1011110000 (
b1011110000 *
1%
#387
0%
#388
b1011110100 $
b1011110100 (
b1011110100 *
1%
#389
0%
#390
b1011111000 $
b1011111000 (
b1011111000 *
1%
#391
0%
#392
b1011111100 $
b1011111100 (
b1011111100 *
1%
#393
0%
#394
b1100000000 $
b1100000000 (
b1100000000 *
1%
#395
0%
#396
b1100000100 $
b1100000100 (
b1100000100 *
1%
#397
0%
#398
b1100001000 $
b1100001000 (
b1100001000 *
1%
#399
0%
#400
b1100001100 $
b1100001100 (
b1100001100 *
1%
#401
0%
#402
b1100010000 $
b1100010000 (
b1100010000 *
1%
#403
0%
#404
b1100010100 $
b1100010100 (
b1100010100 *
1%
#405
0%
#406
b1100011000 $
b1100011000 (
b1100011000 *
1%
#407
0%
#408
b1100011100 $
b1100011100 (
b1100011100 *
1%
#409
0%
#410
b1100100000 $
b1100100000 (
b1100100000 *
1%
#411
0%
#412
b1100100100 $
b1100100100 (
b1100100100 *
1%
#413
0%
#414
b1100101000 $
b1100101000 (
b1100101000 *
1%
#415
0%
#416
b1100101100 $
b1100101100 (
b1100101100 *
1%
#417
0%
#418
b1100110000 $
b1100110000 (
b1100110000 *
1%
#419
0%
#420
b1100110100 $
b1100110100 (
b1100110100 *
1%
#421
0%
#422
b1100111000 $
b1100111000 (
b1100111000 *
1%
#423
0%
#424
b1100111100 $
b1100111100 (
b1100111100 *
1%
#425
0%
#426
b1101000000 $
b1101000000 (
b1101000000 *
1%
#427
0%
#428
b1101000100 $
b1101000100 (
b1101000100 *
1%
#429
0%
#430
b1101001000 $
b1101001000 (
b1101001000 *
1%
#431
0%
#432
b1101001100 $
b1101001100 (
b1101001100 *
1%
#433
0%
#434
b1101010000 $
b1101010000 (
b1101010000 *
1%
#435
0%
#436
b1101010100 $
b1101010100 (
b1101010100 *
1%
#437
0%
#438
b1101011000 $
b1101011000 (
b1101011000 *
1%
#439
0%
#440
b1101011100 $
b1101011100 (
b1101011100 *
1%
#441
0%
#442
b1101100000 $
b1101100000 (
b1101100000 *
1%
#443
0%
#444
b1101100100 $
b1101100100 (
b1101100100 *
1%
#445
0%
#446
b1101101000 $
b1101101000 (
b1101101000 *
1%
#447
0%
#448
b1101101100 $
b1101101100 (
b1101101100 *
1%
#449
0%
#450
b1101110000 $
b1101110000 (
b1101110000 *
1%
#451
0%
#452
b1101110100 $
b1101110100 (
b1101110100 *
1%
#453
0%
#454
b1101111000 $
b1101111000 (
b1101111000 *
1%
#455
0%
#456
b1101111100 $
b1101111100 (
b1101111100 *
1%
#457
0%
#458
b1110000000 $
b1110000000 (
b1110000000 *
1%
#459
0%
#460
b1110000100 $
b1110000100 (
b1110000100 *
1%
#461
0%
#462
b1110001000 $
b1110001000 (
b1110001000 *
1%
#463
0%
#464
b1110001100 $
b1110001100 (
b1110001100 *
1%
#465
0%
#466
b1110010000 $
b1110010000 (
b1110010000 *
1%
#467
0%
#468
b1110010100 $
b1110010100 (
b1110010100 *
1%
#469
0%
#470
b1110011000 $
b1110011000 (
b1110011000 *
1%
#471
0%
#472
b1110011100 $
b1110011100 (
b1110011100 *
1%
#473
0%
#474
b1110100000 $
b1110100000 (
b1110100000 *
1%
#475
0%
#476
b1110100100 $
b1110100100 (
b1110100100 *
1%
#477
0%
#478
b1110101000 $
b1110101000 (
b1110101000 *
1%
#479
0%
#480
b1110101100 $
b1110101100 (
b1110101100 *
1%
#481
0%
#482
b1110110000 $
b1110110000 (
b1110110000 *
1%
#483
0%
#484
b1110110100 $
b1110110100 (
b1110110100 *
1%
#485
0%
#486
b1110111000 $
b1110111000 (
b1110111000 *
1%
#487
0%
#488
b1110111100 $
b1110111100 (
b1110111100 *
1%
#489
0%
#490
b1111000000 $
b1111000000 (
b1111000000 *
1%
#491
0%
#492
b1111000100 $
b1111000100 (
b1111000100 *
1%
#493
0%
#494
b1111001000 $
b1111001000 (
b1111001000 *
1%
#495
0%
#496
b1111001100 $
b1111001100 (
b1111001100 *
1%
#497
0%
#498
b1111010000 $
b1111010000 (
b1111010000 *
1%
#499
0%
#500
b1111010100 $
b1111010100 (
b1111010100 *
1%
#501
0%
#502
b1111011000 $
b1111011000 (
b1111011000 *
1%
#503
0%
#504
b1111011100 $
b1111011100 (
b1111011100 *
1%
#505
0%
#506
b1111100000 $
b1111100000 (
b1111100000 *
1%
#507
0%
#508
b1111100100 $
b1111100100 (
b1111100100 *
1%
#509
0%
#510
b1111101000 $
b1111101000 (
b1111101000 *
1%
#511
0%
#512
b1111101100 $
b1111101100 (
b1111101100 *
1%
#513
0%
#514
b1111110000 $
b1111110000 (
b1111110000 *
1%
#515
0%
#516
b1111110100 $
b1111110100 (
b1111110100 *
1%
#517
0%
#518
b1111111000 $
b1111111000 (
b1111111000 *
1%
#519
0%
#520
b1111111100 $
b1111111100 (
b1111111100 *
1%
#521
0%
#522
b10000000000 $
b10000000000 (
b10000000000 *
1%
#523
0%
#524
b10000000100 $
b10000000100 (
b10000000100 *
1%
#525
0%
#526
b10000001000 $
b10000001000 (
b10000001000 *
1%
#527
0%
#528
b10000001100 $
b10000001100 (
b10000001100 *
1%
#529
0%
#530
b10000010000 $
b10000010000 (
b10000010000 *
1%
#531
0%
#532
b10000010100 $
b10000010100 (
b10000010100 *
1%
#533
0%
#534
b10000011000 $
b10000011000 (
b10000011000 *
1%
#535
0%
#536
b10000011100 $
b10000011100 (
b10000011100 *
1%
#537
0%
#538
b10000100000 $
b10000100000 (
b10000100000 *
1%
#539
0%
#540
b10000100100 $
b10000100100 (
b10000100100 *
1%
#541
0%
#542
b10000101000 $
b10000101000 (
b10000101000 *
1%
#543
0%
#544
b10000101100 $
b10000101100 (
b10000101100 *
1%
#545
0%
#546
b10000110000 $
b10000110000 (
b10000110000 *
1%
#547
0%
#548
b10000110100 $
b10000110100 (
b10000110100 *
1%
#549
0%
#550
b10000111000 $
b10000111000 (
b10000111000 *
1%
#551
0%
#552
b10000111100 $
b10000111100 (
b10000111100 *
1%
#553
0%
#554
b10001000000 $
b10001000000 (
b10001000000 *
1%
#555
0%
#556
b10001000100 $
b10001000100 (
b10001000100 *
1%
#557
0%
#558
b10001001000 $
b10001001000 (
b10001001000 *
1%
#559
0%
#560
b10001001100 $
b10001001100 (
b10001001100 *
1%
#561
0%
#562
b10001010000 $
b10001010000 (
b10001010000 *
1%
#563
0%
#564
b10001010100 $
b10001010100 (
b10001010100 *
1%
#565
0%
#566
b10001011000 $
b10001011000 (
b10001011000 *
1%
#567
0%
#568
b10001011100 $
b10001011100 (
b10001011100 *
1%
#569
0%
#570
b10001100000 $
b10001100000 (
b10001100000 *
1%
#571
0%
#572
b10001100100 $
b10001100100 (
b10001100100 *
1%
#573
0%
#574
b10001101000 $
b10001101000 (
b10001101000 *
1%
#575
0%
#576
b10001101100 $
b10001101100 (
b10001101100 *
1%
#577
0%
#578
b10001110000 $
b10001110000 (
b10001110000 *
1%
#579
0%
#580
b10001110100 $
b10001110100 (
b10001110100 *
1%
#581
0%
#582
b10001111000 $
b10001111000 (
b10001111000 *
1%
#583
0%
#584
b10001111100 $
b10001111100 (
b10001111100 *
1%
#585
0%
#586
b10010000000 $
b10010000000 (
b10010000000 *
1%
#587
0%
#588
b10010000100 $
b10010000100 (
b10010000100 *
1%
#589
0%
#590
b10010001000 $
b10010001000 (
b10010001000 *
1%
#591
0%
#592
b10010001100 $
b10010001100 (
b10010001100 *
1%
#593
0%
#594
b10010010000 $
b10010010000 (
b10010010000 *
1%
#595
0%
#596
b10010010100 $
b10010010100 (
b10010010100 *
1%
#597
0%
#598
b10010011000 $
b10010011000 (
b10010011000 *
1%
#599
0%
#600
b10010011100 $
b10010011100 (
b10010011100 *
1%
#601
0%
#602
b10010100000 $
b10010100000 (
b10010100000 *
1%
#603
0%
#604
b10010100100 $
b10010100100 (
b10010100100 *
1%
#605
0%
#606
b10010101000 $
b10010101000 (
b10010101000 *
1%
#607
0%
#608
b10010101100 $
b10010101100 (
b10010101100 *
1%
#609
0%
#610
b10010110000 $
b10010110000 (
b10010110000 *
1%
#611
0%
#612
b10010110100 $
b10010110100 (
b10010110100 *
1%
#613
0%
#614
b10010111000 $
b10010111000 (
b10010111000 *
1%
#615
0%
#616
b10010111100 $
b10010111100 (
b10010111100 *
1%
#617
0%
#618
b10011000000 $
b10011000000 (
b10011000000 *
1%
#619
0%
#620
b10011000100 $
b10011000100 (
b10011000100 *
1%
#621
0%
#622
b10011001000 $
b10011001000 (
b10011001000 *
1%
#623
0%
#624
b10011001100 $
b10011001100 (
b10011001100 *
1%
#625
0%
#626
b10011010000 $
b10011010000 (
b10011010000 *
1%
#627
0%
#628
b10011010100 $
b10011010100 (
b10011010100 *
1%
#629
0%
#630
b10011011000 $
b10011011000 (
b10011011000 *
1%
#631
0%
#632
b10011011100 $
b10011011100 (
b10011011100 *
1%
#633
0%
#634
b10011100000 $
b10011100000 (
b10011100000 *
1%
#635
0%
#636
b10011100100 $
b10011100100 (
b10011100100 *
1%
#637
0%
#638
b10011101000 $
b10011101000 (
b10011101000 *
1%
#639
0%
#640
b10011101100 $
b10011101100 (
b10011101100 *
1%
#641
0%
#642
b10011110000 $
b10011110000 (
b10011110000 *
1%
#643
0%
#644
b10011110100 $
b10011110100 (
b10011110100 *
1%
#645
0%
#646
b10011111000 $
b10011111000 (
b10011111000 *
1%
#647
0%
#648
b10011111100 $
b10011111100 (
b10011111100 *
1%
#649
0%
#650
b10100000000 $
b10100000000 (
b10100000000 *
1%
#651
0%
#652
b10100000100 $
b10100000100 (
b10100000100 *
1%
#653
0%
#654
b10100001000 $
b10100001000 (
b10100001000 *
1%
#655
0%
#656
b10100001100 $
b10100001100 (
b10100001100 *
1%
#657
0%
#658
b10100010000 $
b10100010000 (
b10100010000 *
1%
#659
0%
#660
b10100010100 $
b10100010100 (
b10100010100 *
1%
#661
0%
#662
b10100011000 $
b10100011000 (
b10100011000 *
1%
#663
0%
#664
b10100011100 $
b10100011100 (
b10100011100 *
1%
#665
0%
#666
b10100100000 $
b10100100000 (
b10100100000 *
1%
#667
0%
#668
b10100100100 $
b10100100100 (
b10100100100 *
1%
#669
0%
#670
b10100101000 $
b10100101000 (
b10100101000 *
1%
#671
0%
#672
b10100101100 $
b10100101100 (
b10100101100 *
1%
#673
0%
#674
b10100110000 $
b10100110000 (
b10100110000 *
1%
#675
0%
#676
b10100110100 $
b10100110100 (
b10100110100 *
1%
#677
0%
#678
b10100111000 $
b10100111000 (
b10100111000 *
1%
#679
0%
#680
b10100111100 $
b10100111100 (
b10100111100 *
1%
#681
0%
#682
b10101000000 $
b10101000000 (
b10101000000 *
1%
#683
0%
#684
b10101000100 $
b10101000100 (
b10101000100 *
1%
#685
0%
#686
b10101001000 $
b10101001000 (
b10101001000 *
1%
#687
0%
#688
b10101001100 $
b10101001100 (
b10101001100 *
1%
#689
0%
#690
b10101010000 $
b10101010000 (
b10101010000 *
1%
#691
0%
#692
b10101010100 $
b10101010100 (
b10101010100 *
1%
#693
0%
#694
b10101011000 $
b10101011000 (
b10101011000 *
1%
#695
0%
#696
b10101011100 $
b10101011100 (
b10101011100 *
1%
#697
0%
#698
b10101100000 $
b10101100000 (
b10101100000 *
1%
#699
0%
#700
b10101100100 $
b10101100100 (
b10101100100 *
1%
#701
0%
#702
b10101101000 $
b10101101000 (
b10101101000 *
1%
#703
0%
#704
b10101101100 $
b10101101100 (
b10101101100 *
1%
#705
0%
#706
b10101110000 $
b10101110000 (
b10101110000 *
1%
#707
0%
#708
b10101110100 $
b10101110100 (
b10101110100 *
1%
#709
0%
#710
b10101111000 $
b10101111000 (
b10101111000 *
1%
#711
0%
#712
b10101111100 $
b10101111100 (
b10101111100 *
1%
#713
0%
#714
b10110000000 $
b10110000000 (
b10110000000 *
1%
#715
0%
#716
b10110000100 $
b10110000100 (
b10110000100 *
1%
#717
0%
#718
b10110001000 $
b10110001000 (
b10110001000 *
1%
#719
0%
#720
b10110001100 $
b10110001100 (
b10110001100 *
1%
#721
0%
#722
b10110010000 $
b10110010000 (
b10110010000 *
1%
#723
0%
#724
b10110010100 $
b10110010100 (
b10110010100 *
1%
#725
0%
#726
b10110011000 $
b10110011000 (
b10110011000 *
1%
#727
0%
#728
b10110011100 $
b10110011100 (
b10110011100 *
1%
#729
0%
#730
b10110100000 $
b10110100000 (
b10110100000 *
1%
#731
0%
#732
b10110100100 $
b10110100100 (
b10110100100 *
1%
#733
0%
#734
b10110101000 $
b10110101000 (
b10110101000 *
1%
#735
0%
#736
b10110101100 $
b10110101100 (
b10110101100 *
1%
#737
0%
#738
b10110110000 $
b10110110000 (
b10110110000 *
1%
#739
0%
#740
b10110110100 $
b10110110100 (
b10110110100 *
1%
#741
0%
#742
b10110111000 $
b10110111000 (
b10110111000 *
1%
#743
0%
#744
b10110111100 $
b10110111100 (
b10110111100 *
1%
#745
0%
#746
b10111000000 $
b10111000000 (
b10111000000 *
1%
#747
0%
#748
b10111000100 $
b10111000100 (
b10111000100 *
1%
#749
0%
#750
b10111001000 $
b10111001000 (
b10111001000 *
1%
#751
0%
#752
b10111001100 $
b10111001100 (
b10111001100 *
1%
#753
0%
#754
b10111010000 $
b10111010000 (
b10111010000 *
1%
#755
0%
#756
b10111010100 $
b10111010100 (
b10111010100 *
1%
#757
0%
#758
b10111011000 $
b10111011000 (
b10111011000 *
1%
#759
0%
#760
b10111011100 $
b10111011100 (
b10111011100 *
1%
#761
0%
#762
b10111100000 $
b10111100000 (
b10111100000 *
1%
#763
0%
#764
b10111100100 $
b10111100100 (
b10111100100 *
1%
#765
0%
#766
b10111101000 $
b10111101000 (
b10111101000 *
1%
#767
0%
#768
b10111101100 $
b10111101100 (
b10111101100 *
1%
#769
0%
#770
b10111110000 $
b10111110000 (
b10111110000 *
1%
#771
0%
#772
b10111110100 $
b10111110100 (
b10111110100 *
1%
#773
0%
#774
b10111111000 $
b10111111000 (
b10111111000 *
1%
#775
0%
#776
b10111111100 $
b10111111100 (
b10111111100 *
1%
#777
0%
#778
b11000000000 $
b11000000000 (
b11000000000 *
1%
#779
0%
#780
b11000000100 $
b11000000100 (
b11000000100 *
1%
#781
0%
#782
b11000001000 $
b11000001000 (
b11000001000 *
1%
#783
0%
#784
b11000001100 $
b11000001100 (
b11000001100 *
1%
#785
0%
#786
b11000010000 $
b11000010000 (
b11000010000 *
1%
#787
0%
#788
b11000010100 $
b11000010100 (
b11000010100 *
1%
#789
0%
#790
b11000011000 $
b11000011000 (
b11000011000 *
1%
#791
0%
#792
b11000011100 $
b11000011100 (
b11000011100 *
1%
#793
0%
#794
b11000100000 $
b11000100000 (
b11000100000 *
1%
#795
0%
#796
b11000100100 $
b11000100100 (
b11000100100 *
1%
#797
0%
#798
b11000101000 $
b11000101000 (
b11000101000 *
1%
#799
0%
#800
b11000101100 $
b11000101100 (
b11000101100 *
1%
#801
0%
#802
b11000110000 $
b11000110000 (
b11000110000 *
1%
#803
0%
#804
b11000110100 $
b11000110100 (
b11000110100 *
1%
#805
0%
#806
b11000111000 $
b11000111000 (
b11000111000 *
1%
#807
0%
#808
b11000111100 $
b11000111100 (
b11000111100 *
1%
#809
0%
#810
b11001000000 $
b11001000000 (
b11001000000 *
1%
#811
0%
#812
b11001000100 $
b11001000100 (
b11001000100 *
1%
#813
0%
#814
b11001001000 $
b11001001000 (
b11001001000 *
1%
#815
0%
